15
33330 Lucas Daniela
27902 Eduardo Felipe
77473 Vitor Luis
20286 Lucas Rafael
91971 Luis Rafael
50564 Ricardo Felipe
86047 Felipe Luis
53356 Mauricio Daniela
16289 Pedro Jose
27926 Ricardo Daniela
82437 Pedro Lucas
82396 Vanessa Felipe
5696 Daniela Aline
28589 Pedro Fabio
63397 Vinicius Ricardo
Vitor Aline